C:\Users\gilbe\Desktop\sparknetwork\Core\src\main\java\us\sparknetwork\core\listeners\VanishListeners.java
C:\Users\gilbe\Desktop\sparknetwork\Core\src\main\java\us\sparknetwork\core\commands\chat\CommandBroadcastRaw.java
C:\Users\gilbe\Desktop\sparknetwork\Core\src\main\java\us\sparknetwork\core\kit\KitManager.java
C:\Users\gilbe\Desktop\sparknetwork\Core\src\main\java\us\sparknetwork\core\vault\EconomyVaultConnector.java
C:\Users\gilbe\Desktop\sparknetwork\Core\src\main\java\us\sparknetwork\core\commands\essentials\CommandFreeze.java
C:\Users\gilbe\Desktop\sparknetwork\Core\src\main\java\us\sparknetwork\core\commands\essentials\CommandSudo.java
C:\Users\gilbe\Desktop\sparknetwork\Core\src\main\java\us\sparknetwork\core\listeners\UserManagerListener.java
C:\Users\gilbe\Desktop\sparknetwork\Core\src\main\java\us\sparknetwork\utils\PlayerCache.java
C:\Users\gilbe\Desktop\sparknetwork\Core\src\main\java\us\sparknetwork\core\commands\essentials\CommandCore.java
C:\Users\gilbe\Desktop\sparknetwork\Core\src\main\java\us\sparknetwork\core\commands\teleport\CommandTeleportHere.java
C:\Users\gilbe\Desktop\sparknetwork\Core\src\main\java\us\sparknetwork\core\commands\essentials\CommandFly.java
C:\Users\gilbe\Desktop\sparknetwork\Core\src\main\java\us\sparknetwork\core\commands\inventory\CommandClearInventory.java
C:\Users\gilbe\Desktop\sparknetwork\Core\src\main\java\us\sparknetwork\core\event\WithdrawBalanceEvent.java
C:\Users\gilbe\Desktop\sparknetwork\Core\src\main\java\us\sparknetwork\core\commands\chat\CommandClearChat.java
C:\Users\gilbe\Desktop\sparknetwork\Core\src\main\java\us\sparknetwork\core\schedulers\ClearLagRunnable.java
C:\Users\gilbe\Desktop\sparknetwork\Core\src\main\java\us\sparknetwork\core\server\ServerManager.java
C:\Users\gilbe\Desktop\sparknetwork\Core\src\main\java\us\sparknetwork\core\commands\teleport\CommandTeleport.java
C:\Users\gilbe\Desktop\sparknetwork\Core\src\main\java\us\sparknetwork\core\commands\essentials\CommandClearLag.java
C:\Users\gilbe\Desktop\sparknetwork\Core\src\main\java\us\sparknetwork\core\event\ResetAccountEvent.java
C:\Users\gilbe\Desktop\sparknetwork\Core\src\main\java\us\sparknetwork\core\server\Server.java
C:\Users\gilbe\Desktop\sparknetwork\Core\src\main\java\us\sparknetwork\core\Key.java
C:\Users\gilbe\Desktop\sparknetwork\Core\src\main\java\us\sparknetwork\core\handlers\FreezeManager.java
C:\Users\gilbe\Desktop\sparknetwork\Core\src\main\java\us\sparknetwork\utils\MessageUtils.java
C:\Users\gilbe\Desktop\sparknetwork\Core\src\main\java\us\sparknetwork\core\commands\CommandHandler.java
C:\Users\gilbe\Desktop\sparknetwork\Core\src\main\java\us\sparknetwork\utils\Cuboid.java
C:\Users\gilbe\Desktop\sparknetwork\Core\src\main\java\us\sparknetwork\core\user\Participator.java
C:\Users\gilbe\Desktop\sparknetwork\Core\src\main\java\us\sparknetwork\utils\Config.java
C:\Users\gilbe\Desktop\sparknetwork\Core\src\main\java\us\sparknetwork\utils\scoreboard\BufferedObjective.java
C:\Users\gilbe\Desktop\sparknetwork\Core\src\main\java\us\sparknetwork\core\kit\Kit.java
C:\Users\gilbe\Desktop\sparknetwork\Core\src\main\java\us\sparknetwork\core\commands\inventory\CopyInventory.java
C:\Users\gilbe\Desktop\sparknetwork\Core\src\main\java\us\sparknetwork\core\StaffPriority.java
C:\Users\gilbe\Desktop\sparknetwork\Core\src\main\java\us\sparknetwork\utils\Inventory.java
C:\Users\gilbe\Desktop\sparknetwork\Core\src\main\java\us\sparknetwork\core\commands\inventory\CommandInvsee.java
C:\Users\gilbe\Desktop\sparknetwork\Core\src\main\java\us\sparknetwork\core\CoreConstants.java
C:\Users\gilbe\Desktop\sparknetwork\Core\src\main\java\us\sparknetwork\core\commands\essentials\CommandSetMaxPlayers.java
C:\Users\gilbe\Desktop\sparknetwork\Core\src\main\java\us\sparknetwork\core\commands\CommandModule.java
C:\Users\gilbe\Desktop\sparknetwork\Core\src\main\java\us\sparknetwork\core\commands\chat\CommandStaffChat.java
C:\Users\gilbe\Desktop\sparknetwork\Core\src\main\java\us\sparknetwork\core\commands\chat\CommandToggleStaffChat.java
C:\Users\gilbe\Desktop\sparknetwork\Core\src\main\java\us\sparknetwork\core\commands\essentials\CommandHeal.java
C:\Users\gilbe\Desktop\sparknetwork\Core\src\main\java\us\sparknetwork\utils\LocationBuilder.java
C:\Users\gilbe\Desktop\sparknetwork\Core\src\main\java\us\sparknetwork\utils\PersistableLocation.java
C:\Users\gilbe\Desktop\sparknetwork\Core\src\main\java\us\sparknetwork\core\server\ServerSettings.java
C:\Users\gilbe\Desktop\sparknetwork\Core\src\main\java\us\sparknetwork\core\commands\essentials\CommandHelpOp.java
C:\Users\gilbe\Desktop\sparknetwork\Core\src\main\java\us\sparknetwork\core\commands\CommandArgument.java
C:\Users\gilbe\Desktop\sparknetwork\Core\src\main\java\us\sparknetwork\utils\RefundInventory.java
C:\Users\gilbe\Desktop\sparknetwork\Core\src\main\java\us\sparknetwork\core\commands\chat\CommandBroadcast.java
C:\Users\gilbe\Desktop\sparknetwork\Core\src\main\java\us\sparknetwork\core\listeners\SecurityListener.java
C:\Users\gilbe\Desktop\sparknetwork\Core\src\main\java\us\sparknetwork\core\backend\redis\connection\RedisPoolManager.java
C:\Users\gilbe\Desktop\sparknetwork\Core\src\main\java\us\sparknetwork\utils\ChatColorUtils.java
C:\Users\gilbe\Desktop\sparknetwork\Core\src\main\java\us\sparknetwork\core\backend\Callback.java
C:\Users\gilbe\Desktop\sparknetwork\Core\src\main\java\us\sparknetwork\core\commands\essentials\CommandIpHistory.java
C:\Users\gilbe\Desktop\sparknetwork\Core\src\main\java\us\sparknetwork\core\commands\chat\CommandToggleGlobalChat.java
C:\Users\gilbe\Desktop\sparknetwork\Core\src\main\java\us\sparknetwork\core\ItemDB\ItemData.java
C:\Users\gilbe\Desktop\sparknetwork\Core\src\main\java\us\sparknetwork\utils\TimeUtils.java
C:\Users\gilbe\Desktop\sparknetwork\Core\src\main\java\us\sparknetwork\core\commands\teleport\CommandTop.java
C:\Users\gilbe\Desktop\sparknetwork\Core\src\main\java\us\sparknetwork\core\event\UserStaffModeEvent.java
C:\Users\gilbe\Desktop\sparknetwork\Core\src\main\java\us\sparknetwork\core\commands\essentials\CommandRepair.java
C:\Users\gilbe\Desktop\sparknetwork\Core\src\main\java\us\sparknetwork\core\commands\inventory\CommandGive.java
C:\Users\gilbe\Desktop\sparknetwork\Core\src\main\java\us\sparknetwork\core\listeners\ColouredSignListener.java
C:\Users\gilbe\Desktop\sparknetwork\Core\src\main\java\us\sparknetwork\core\Table.java
C:\Users\gilbe\Desktop\sparknetwork\Core\src\main\java\us\sparknetwork\core\listeners\MaxPlayersListener.java
C:\Users\gilbe\Desktop\sparknetwork\Core\src\main\java\us\sparknetwork\core\listeners\ChatListener.java
C:\Users\gilbe\Desktop\sparknetwork\Core\src\main\java\us\sparknetwork\core\user\ConsoleUser.java
C:\Users\gilbe\Desktop\sparknetwork\Core\src\main\java\us\sparknetwork\core\commands\ArgumentExecutor.java
C:\Users\gilbe\Desktop\sparknetwork\Core\src\main\java\us\sparknetwork\core\commands\essentials\CommandVanish.java
C:\Users\gilbe\Desktop\sparknetwork\Core\src\main\java\us\sparknetwork\core\commands\essentials\CommandRename.java
C:\Users\gilbe\Desktop\sparknetwork\Core\src\main\java\us\sparknetwork\core\economy\EconomyCallback.java
C:\Users\gilbe\Desktop\sparknetwork\Core\src\main\java\us\sparknetwork\core\event\SyncEvent.java
C:\Users\gilbe\Desktop\sparknetwork\Core\src\main\java\us\sparknetwork\utils\BukkitAndNMSUtils.java
C:\Users\gilbe\Desktop\sparknetwork\Core\src\main\java\us\sparknetwork\core\handlers\StaffModeManager.java
C:\Users\gilbe\Desktop\sparknetwork\Core\src\main\java\us\sparknetwork\core\user\YAMLUserManager.java
C:\Users\gilbe\Desktop\sparknetwork\Core\src\main\java\us\sparknetwork\core\commands\chat\CommandTell.java
C:\Users\gilbe\Desktop\sparknetwork\Core\src\main\java\us\sparknetwork\core\commands\essentials\CommandSetrank.java
C:\Users\gilbe\Desktop\sparknetwork\Core\src\main\java\us\sparknetwork\core\economy\EconomyManager.java
C:\Users\gilbe\Desktop\sparknetwork\Core\src\main\java\us\sparknetwork\core\commands\teleport\CommandWorld.java
C:\Users\gilbe\Desktop\sparknetwork\Core\src\main\java\us\sparknetwork\core\listeners\JoinListener.java
C:\Users\gilbe\Desktop\sparknetwork\Core\src\main\java\us\sparknetwork\core\backend\RedisCredentials.java
C:\Users\gilbe\Desktop\sparknetwork\Core\src\main\java\us\sparknetwork\core\commands\essentials\CommandStaffMode.java
C:\Users\gilbe\Desktop\sparknetwork\Core\src\main\java\us\sparknetwork\utils\PlayerUtils.java
C:\Users\gilbe\Desktop\sparknetwork\Core\src\main\java\us\sparknetwork\core\commands\essentials\CommandKill.java
C:\Users\gilbe\Desktop\sparknetwork\Core\src\main\java\us\sparknetwork\core\ItemDB\ItemDb.java
C:\Users\gilbe\Desktop\sparknetwork\Core\src\main\java\us\sparknetwork\utils\LocationUtils.java
C:\Users\gilbe\Desktop\sparknetwork\Core\src\main\java\us\sparknetwork\utils\scoreboard\Entry.java
C:\Users\gilbe\Desktop\sparknetwork\Core\src\main\java\us\sparknetwork\core\economy\IEconomy.java
C:\Users\gilbe\Desktop\sparknetwork\Core\src\main\java\us\sparknetwork\core\commands\chat\CommandReply.java
C:\Users\gilbe\Desktop\sparknetwork\Core\src\main\java\us\sparknetwork\utils\TimeParser.java
C:\Users\gilbe\Desktop\sparknetwork\Core\src\main\java\us\sparknetwork\core\user\User.java
C:\Users\gilbe\Desktop\sparknetwork\Core\src\main\java\us\sparknetwork\core\commands\chat\CommandTogglePm.java
C:\Users\gilbe\Desktop\sparknetwork\Core\src\main\java\us\sparknetwork\core\ItemDB\SimpleItemDb.java
C:\Users\gilbe\Desktop\sparknetwork\Core\src\main\java\us\sparknetwork\core\event\AddBalanceEvent.java
C:\Users\gilbe\Desktop\sparknetwork\Core\src\main\java\us\sparknetwork\core\commands\essentials\CommandFeed.java
C:\Users\gilbe\Desktop\sparknetwork\Core\src\main\java\us\sparknetwork\core\CorePlugin.java
C:\Users\gilbe\Desktop\sparknetwork\Core\src\main\java\us\sparknetwork\core\schedulers\AutoRestartHandler.java
C:\Users\gilbe\Desktop\sparknetwork\Core\src\main\java\us\sparknetwork\core\commands\ReflectionCommandHandler.java
C:\Users\gilbe\Desktop\sparknetwork\Core\src\main\java\us\sparknetwork\core\user\UserManager.java
C:\Users\gilbe\Desktop\sparknetwork\Core\src\main\java\us\sparknetwork\core\spawn\SpawnManager.java
C:\Users\gilbe\Desktop\sparknetwork\Core\src\main\java\us\sparknetwork\core\commands\essentials\CommandList.java
C:\Users\gilbe\Desktop\sparknetwork\Core\src\main\java\us\sparknetwork\utils\InventoryStringDeSerializer.java
C:\Users\gilbe\Desktop\sparknetwork\Core\src\main\java\us\sparknetwork\core\commands\essentials\CommandCraft.java
C:\Users\gilbe\Desktop\sparknetwork\Core\src\main\java\us\sparknetwork\utils\ItemBuilder.java
C:\Users\gilbe\Desktop\sparknetwork\Core\src\main\java\us\sparknetwork\core\ServerHandler.java
C:\Users\gilbe\Desktop\sparknetwork\Core\src\main\java\us\sparknetwork\core\commands\essentials\CommandGamemode.java
C:\Users\gilbe\Desktop\sparknetwork\Core\src\main\java\us\sparknetwork\core\commands\essentials\CommandAnnouncement.java
C:\Users\gilbe\Desktop\sparknetwork\Core\src\main\java\us\sparknetwork\core\backend\mysql\connection\MysqlPoolManager.java
C:\Users\gilbe\Desktop\sparknetwork\Core\src\main\java\us\sparknetwork\core\commands\essentials\CommandAmivis.java
C:\Users\gilbe\Desktop\sparknetwork\Core\src\main\java\us\sparknetwork\core\user\Nick.java
C:\Users\gilbe\Desktop\sparknetwork\Core\src\main\java\us\sparknetwork\core\event\CreateAccountEvent.java
C:\Users\gilbe\Desktop\sparknetwork\Core\src\main\java\us\sparknetwork\core\event\UserVanishEvent.java
C:\Users\gilbe\Desktop\sparknetwork\Core\src\main\java\us\sparknetwork\core\commands\inventory\CommandEnchant.java
C:\Users\gilbe\Desktop\sparknetwork\Core\src\main\java\us\sparknetwork\core\ItemDB\ManagedFile.java
C:\Users\gilbe\Desktop\sparknetwork\Core\src\main\java\us\sparknetwork\core\backend\MysqlCredentials.java
C:\Users\gilbe\Desktop\sparknetwork\Core\src\main\java\us\sparknetwork\core\commands\chat\CommandSocialSpy.java
C:\Users\gilbe\Desktop\sparknetwork\Core\src\main\java\us\sparknetwork\core\commands\teleport\CommandTeleportAll.java
C:\Users\gilbe\Desktop\sparknetwork\Core\src\main\java\us\sparknetwork\core\schedulers\AnnouncerRunnable.java
